%YAML 1.1
%TAG !u! tag:unity3d.com,2011:
--- !u!74 &7400000
AnimationClip:
  m_ObjectHideFlags: 0
  m_CorrespondingSourceObject: {fileID: 0}
  m_PrefabInstance: {fileID: 0}
  m_PrefabAsset: {fileID: 0}
  m_Name: Coin_Shine
  serializedVersion: 6
  m_Legacy: 0
  m_Compressed: 0
  m_UseHighQualityCurve: 1
  m_RotationCurves: []
  m_CompressedRotationCurves: []
  m_EulerCurves: []
  m_PositionCurves: []
  m_ScaleCurves: []
  m_FloatCurves: []
  m_PPtrCurves:
  - curve:
    - time: 0
      value: {fileID: 21300000, guid: 9cf18efe95bd30b44aa89d50fb811e4c, type: 3}
    - time: 0.083333336
      value: {fileID: 21300000, guid: 1bbeb52f1f1b24c488536d1544442026, type: 3}
    - time: 0.16666667
      value: {fileID: 21300000, guid: 73930ab0bf0c58248965e8dcf3509c17, type: 3}
    - time: 0.25
      value: {fileID: 21300000, guid: 79d145df7d3441649ba24ab65b0e99e5, type: 3}
    - time: 0.33333334
      value: {fileID: 21300000, guid: a50449509df1395419ba25bee955e1df, type: 3}
    - time: 0.41666666
      value: {fileID: 21300000, guid: 125abac1ef4ad3c4890dc9c44b49a02f, type: 3}
    - time: 0.5
      value: {fileID: 21300000, guid: 811ea1cc3430d7c48bb07cc1353f77c0, type: 3}
    - time: 0.5833333
      value: {fileID: 21300000, guid: 32206f9c6cc733d48ba6c6d5fe01928b, type: 3}
    attribute: m_Sprite
    path: 
    classID: 212
    script: {fileID: 0}
  m_SampleRate: 12
  m_WrapMode: 0
  m_Bounds:
    m_Center: {x: 0, y: 0, z: 0}
    m_Extent: {x: 0, y: 0, z: 0}
  m_ClipBindingConstant:
    genericBindings:
    - serializedVersion: 2
      path: 0
      attribute: 0
      script: {fileID: 0}
      typeID: 212
      customType: 23
      isPPtrCurve: 1
    pptrCurveMapping:
    - {fileID: 21300000, guid: 9cf18efe95bd30b44aa89d50fb811e4c, type: 3}
    - {fileID: 21300000, guid: 1bbeb52f1f1b24c488536d1544442026, type: 3}
    - {fileID: 21300000, guid: 73930ab0bf0c58248965e8dcf3509c17, type: 3}
    - {fileID: 21300000, guid: 79d145df7d3441649ba24ab65b0e99e5, type: 3}
    - {fileID: 21300000, guid: a50449509df1395419ba25bee955e1df, type: 3}
    - {fileID: 21300000, guid: 125abac1ef4ad3c4890dc9c44b49a02f, type: 3}
    - {fileID: 21300000, guid: 811ea1cc3430d7c48bb07cc1353f77c0, type: 3}
    - {fileID: 21300000, guid: 32206f9c6cc733d48ba6c6d5fe01928b, type: 3}
  m_AnimationClipSettings:
    serializedVersion: 2
    m_AdditiveReferencePoseClip: {fileID: 0}
    m_AdditiveReferencePoseTime: 0
    m_StartTime: 0
    m_StopTime: 0.6666666
    m_OrientationOffsetY: 0
    m_Level: 0
    m_CycleOffset: 0
    m_HasAdditiveReferencePose: 0
    m_LoopTime: 0
    m_LoopBlend: 0
    m_LoopBlendOrientation: 0
    m_LoopBlendPositionY: 0
    m_LoopBlendPositionXZ: 0
    m_KeepOriginalOrientation: 0
    m_KeepOriginalPositionY: 1
    m_KeepOriginalPositionXZ: 0
    m_HeightFromFeet: 0
    m_Mirror: 0
  m_EditorCurves: []
  m_EulerEditorCurves: []
  m_HasGenericRootTransform: 0
  m_HasMotionFloatCurves: 0
  m_Events: []
